<?xml version="1.0" standalone="no"?>
<!DOCTYPE svg PUBLIC "-//W3C//DTD SVG 1.1//EN" "http://www.w3.org/Graphics/SVG/1.1/DTD/svg11.dtd">
<svg xmlns="http://www.w3.org/2000/svg">
<metadata>Copyright (C) 2014 by original authors @ fontello.com</metadata>
<defs>
<font id="simple_forum" horiz-adv-x="1000" >
<font-face font-family="simple_forum" font-weight="400" font-stretch="normal" units-per-em="1000" ascent="850" descent="-150" />
<missing-glyph horiz-adv-x="1000" />
<glyph glyph-name="facebook-1" unicode="&#xe804;" d="m124-150v469h-124v169h124v145c0 113 73 217 242 217 69 0 119-7 119-7l-4-157s-51 0-108 0c-60 0-70-28-70-74v-124h183l-8-169h-175v-469h-179" horiz-adv-x="486" />
<glyph glyph-name="facebook-rect" unicode="&#xe805;" d="m183 850c-102 0-183-81-183-183l0-634c0-102 81-183 183-183l344 0 0 391-104 0 0 141 104 0 0 120c0 94 61 181 201 181 57 0 100-5 100-5l-4-132s-43 1-90 1c-50 0-58-24-58-62l0-103 152 0-6-141-146 0 0-391 141 0c102 0 183 81 183 183l0 634c0 102-81 183-183 183l-634 0z" horiz-adv-x="1000" />
<glyph glyph-name="twitter-bird-1" unicode="&#xe806;" d="m1231 732q-51-77-126-131 1-14 1-32 0-102-30-203-29-102-90-195-61-92-145-164-84-72-201-114-118-43-253-43-210 0-387 113 31-3 60-3 176 0 314 108-82 2-147 51-64 49-89 125 24-5 48-5 34 0 66 9-87 17-145 87-57 69-57 160l0 4q53-30 114-32-52 34-82 90-30 55-30 120 0 68 34 127 95-117 230-186 135-70 290-78-6 28-6 58 0 104 74 178 74 74 178 74 110 0 185-80 85 17 160 62-29-91-111-140 76 9 145 39z" horiz-adv-x="1231" />
<glyph glyph-name="googleplus-rect" unicode="&#xe807;" d="m92 850c-51 0-92-26-92-92l0-79c4 3 8 7 12 11 83 68 173 80 250 81l307 0-82-66-89 0c36-31 89-86 89-184 0-108-57-159-118-207-19-19-41-40-41-72 0-32 22-49 38-63l52-40c64-54 148-117 148-217 0-27-3-52-12-72l354 0c51 0 92 28 92 79l0 580-184 0 0-185-79 0 0 185-184 0 0 78 184 0 0 184 79 0 0-184 184 0 0 171c0 66-41 92-92 92l-816 0z m908-263l0-78 1 0 0 78-1 0z m-813 135c-38 0-78-19-102-48-24-31-28-70-28-108 0-98 51-242 176-242 36 0 74 9 98 36 27 31 37 72 37 93 0 106-60 269-181 269z m-187-398l0-259c66 53 180 44 235 47-20 27-43 54-43 99 0 25 7 40 14 57-16-1-32-3-46-3-66 0-120 26-160 59z m251-252c-13 0-91-3-152-24-21-8-69-26-99-66l0-53c0-51 41-79 92-79l377 0c2 7 6 12 6 26-1 75-80 115-190 194-12 2-19 2-34 2z" horiz-adv-x="1001" />
</font>
</defs>
</svg>